{
	"info": {
		"_postman_id": "a47e30c3-25d9-40f8-a97c-dd41b6a072c6",
		"name": "Garage Services and Orders",
		"schema": "https://schema.getpostman.com/json/collection/v2.1.0/collection.json"
	},
	"item": [
		{
			"name": "orders",
			"request": {
				"auth": {
					"type": "bearer",
					"bearer": [
						{
							"key": "token",
							"value": "",
							"type": "string"
						}
					]
				},
				"method": "GET",
				"header": [],
				"url": {
					"raw": "localhost:5555/orders",
					"host": [
						"localhost"
					],
					"port": "5555",
					"path": [
						"orders"
					]
				}
			},
			"response": []
		},
		{
			"name": "services",
			"request": {
				"auth": {
					"type": "bearer",
					"bearer": [
						{
							"key": "token",
							"value": "",
							"type": "string"
						}
					]
				},
				"method": "GET",
				"header": [],
				"url": {
					"raw": "localhost:5555/services",
					"host": [
						"localhost"
					],
					"port": "5555",
					"path": [
						"services"
					]
				}
			},
			"response": []
		},
		{
			"name": "delete service",
			"request": {
				"auth": {
					"type": "bearer",
					"bearer": [
						{
							"key": "token",
							"value": "",
							"type": "string"
						}
					]
				},
				"method": "DELETE",
				"header": [],
				"url": {
					"raw": "localhost:5555/services/1",
					"host": [
						"localhost"
					],
					"port": "5555",
					"path": [
						"services",
						"1"
					]
				}
			},
			"response": []
		},
		{
			"name": "get current user orders",
			"request": {
				"auth": {
					"type": "bearer",
					"bearer": [
						{
							"key": "token",
							"value": "",
							"type": "string"
						}
					]
				},
				"method": "GET",
				"header": [],
				"url": {
					"raw": "localhost:5555/user/order",
					"host": [
						"localhost"
					],
					"port": "5555",
					"path": [
						"user",
						"order"
					]
				}
			},
			"response": []
		},
		{
			"name": "delete order by order id",
			"request": {
				"auth": {
					"type": "bearer",
					"bearer": [
						{
							"key": "token",
							"value": "",
							"type": "string"
						}
					]
				},
				"method": "DELETE",
				"header": [],
				"url": {
					"raw": "localhost:5555/user/order/98",
					"host": [
						"localhost"
					],
					"port": "5555",
					"path": [
						"user",
						"order",
						"98"
					]
				}
			},
			"response": []
		},
		{
			"name": "update order status",
			"request": {
				"auth": {
					"type": "bearer",
					"bearer": [
						{
							"key": "token",
							"value": "",
							"type": "string"
						}
					]
				},
				"method": "PUT",
				"header": [],
				"body": {
					"mode": "raw",
					"raw": "{\r\n    \"status\":\"done\"\r\n\r\n\r\n}",
					"options": {
						"raw": {
							"language": "json"
						}
					}
				},
				"url": {
					"raw": "localhost:5555/order/99/status",
					"host": [
						"localhost"
					],
					"port": "5555",
					"path": [
						"order",
						"99",
						"status"
					]
				}
			},
			"response": []
		},
		{
			"name": "add service to order",
			"request": {
				"auth": {
					"type": "bearer",
					"bearer": [
						{
							"key": "token",
							"value": "",
							"type": "string"
						}
					]
				},
				"method": "PUT",
				"header": [],
				"body": {
					"mode": "raw",
					"raw": "{\r\n    \"service_id\":31}",
					"options": {
						"raw": {
							"language": "json"
						}
					}
				},
				"url": {
					"raw": "localhost:5555/user/order/98",
					"host": [
						"localhost"
					],
					"port": "5555",
					"path": [
						"user",
						"order",
						"98"
					]
				}
			},
			"response": []
		},
		{
			"name": "create order",
			"request": {
				"auth": {
					"type": "bearer",
					"bearer": [
						{
							"key": "token",
							"value": "eyJhbGciOiJIUzI1NiIsInR5cCI6IkpXVCJ9.eyJzdWIiOjQsImVtYWlsIjoiZGltaXRhckB5YWhvby5jb20iLCJyb2xlIjoiZW1wbG95ZWUiLCJpYXQiOjE2MjIxMzg0ODJ9.WKjCAaL-6gWstLfMUkYQn3-QimDt6g-080eSgMUAwnc",
							"type": "string"
						}
					]
				},
				"method": "POST",
				"header": [],
				"body": {
					"mode": "raw",
					"raw": "{   \"due_date\":\"2020-05-24\",\r\n    \"issue_date\":\"2020-06-24\",\r\n    \"notes\": \"Last\",\r\n    \"status\": \"new\"\r\n}",
					"options": {
						"raw": {
							"language": "json"
						}
					}
				},
				"url": {
					"raw": "localhost:5555/order/vehicle/6",
					"host": [
						"localhost"
					],
					"port": "5555",
					"path": [
						"order",
						"vehicle",
						"6"
					]
				}
			},
			"response": []
		},
		{
			"name": "create service",
			"request": {
				"auth": {
					"type": "bearer",
					"bearer": [
						{
							"key": "token",
							"value": "",
							"type": "string"
						}
					]
				},
				"method": "POST",
				"header": [],
				"body": {
					"mode": "raw",
					"raw": "{\r\n    \"name\":\"Test555\",\r\n    \"price\": 50\r\n}",
					"options": {
						"raw": {
							"language": "json"
						}
					}
				},
				"url": {
					"raw": "localhost:5555/services",
					"host": [
						"localhost"
					],
					"port": "5555",
					"path": [
						"services"
					]
				}
			},
			"response": []
		},
		{
			"name": "update service",
			"request": {
				"auth": {
					"type": "bearer",
					"bearer": [
						{
							"key": "token",
							"value": "",
							"type": "string"
						}
					]
				},
				"method": "PUT",
				"header": [],
				"body": {
					"mode": "raw",
					"raw": "{\r\n    \"price\": 500\r\n}",
					"options": {
						"raw": {
							"language": "json"
						}
					}
				},
				"url": {
					"raw": "localhost:5555/services/1",
					"host": [
						"localhost"
					],
					"port": "5555",
					"path": [
						"services",
						"1"
					]
				}
			},
			"response": []
		}
	]
}