{
	"info": {
		"_postman_id": "71dc0f48-23ca-4533-b252-c65a059f835a",
		"name": "Vehicles",
		"schema": "https://schema.getpostman.com/json/collection/v2.1.0/collection.json"
	},
	"item": [
		{
			"name": "/",
			"request": {
				"method": "GET",
				"header": [],
				"url": {
					"raw": "localhost:5555/",
					"host": [
						"localhost"
					],
					"port": "5555",
					"path": [
						""
					]
				}
			},
			"response": []
		},
		{
			"name": "/vehicles",
			"request": {
				"method": "GET",
				"header": [],
				"url": {
					"raw": "localhost:5555/vehicles",
					"host": [
						"localhost"
					],
					"port": "5555",
					"path": [
						"vehicles"
					],
					"query": [
						{
							"key": "page",
							"value": "1",
							"disabled": true
						},
						{
							"key": "limit",
							"value": "3",
							"disabled": true
						}
					]
				}
			},
			"response": []
		},
		{
			"name": "/vehicles?search=Eva",
			"request": {
				"method": "GET",
				"header": [],
				"url": {
					"raw": "localhost:5555/vehicles?search=Eva",
					"host": [
						"localhost"
					],
					"port": "5555",
					"path": [
						"vehicles"
					],
					"query": [
						{
							"key": "search",
							"value": "Eva"
						}
					]
				}
			},
			"response": []
		},
		{
			"name": "/vehicles/:id",
			"request": {
				"method": "GET",
				"header": [],
				"url": {
					"raw": "localhost:5555/vehicles",
					"host": [
						"localhost"
					],
					"port": "5555",
					"path": [
						"vehicles"
					],
					"query": [
						{
							"key": "page",
							"value": "1",
							"disabled": true
						},
						{
							"key": "limit",
							"value": "3",
							"disabled": true
						}
					]
				}
			},
			"response": []
		},
		{
			"name": "user/:customerId/vehicles",
			"request": {
				"method": "GET",
				"header": [],
				"url": {
					"raw": "localhost:5555/vehicles",
					"host": [
						"localhost"
					],
					"port": "5555",
					"path": [
						"vehicles"
					],
					"query": [
						{
							"key": "page",
							"value": "1",
							"disabled": true
						},
						{
							"key": "limit",
							"value": "3",
							"disabled": true
						}
					]
				}
			},
			"response": []
		},
		{
			"name": "/vehicles/:id",
			"request": {
				"method": "PUT",
				"header": [],
				"body": {
					"mode": "raw",
					"raw": "{\r\n\"reg_plate\": \"E1255BX\",\r\n\"year\" : 2010,\r\n  \"class\" :\"A\",\r\n  \"vin\" :\"KMHBT51GP4U192200\",\r\n  \"transmissions\": \"manual\",\r\n  \"engine\":\"petrol\",\r\n  \"model\" :\"Getz\",\r\n  \"brand\" : \"Hyundai\" \r\n    \r\n}",
					"options": {
						"raw": {
							"language": "json"
						}
					}
				},
				"url": {
					"raw": "localhost:5555/vehicles/6",
					"host": [
						"localhost"
					],
					"port": "5555",
					"path": [
						"vehicles",
						"6"
					]
				}
			},
			"response": []
		},
		{
			"name": "/vehicles/:id - error",
			"request": {
				"method": "PUT",
				"header": [],
				"body": {
					"mode": "raw",
					"raw": "{\r\n\"reg_plate\": \"E1255BX\",\r\n\"year\" : 2010,\r\n  \"class\" :\"A\",\r\n  \"vin\" :\"KMHBT51GP4U192200\",\r\n  \"transmissions\": \"manual\",\r\n  \"engine\":\"petrol\",\r\n  \"model\" :\"Getz\",\r\n  \"brand\" : \"Hyundai\" \r\n    \r\n}",
					"options": {
						"raw": {
							"language": "json"
						}
					}
				},
				"url": {
					"raw": "localhost:5555/vehicles/6",
					"host": [
						"localhost"
					],
					"port": "5555",
					"path": [
						"vehicles",
						"6"
					]
				}
			},
			"response": []
		},
		{
			"name": "/vehicles/:id",
			"request": {
				"method": "DELETE",
				"header": [],
				"body": {
					"mode": "raw",
					"raw": "",
					"options": {
						"raw": {
							"language": "json"
						}
					}
				},
				"url": {
					"raw": "localhost:5555/vehicles/6",
					"host": [
						"localhost"
					],
					"port": "5555",
					"path": [
						"vehicles",
						"6"
					]
				}
			},
			"response": []
		},
		{
			"name": "/vehicles - error",
			"request": {
				"method": "POST",
				"header": [],
				"body": {
					"mode": "raw",
					"raw": "{\r\n\"reg_plate\": \"E0407BX\",\r\n\"year\" : 2008,\r\n\"class\" :\"C\",\r\n\"vin\" :\"KMHBH89GP4U592255\",\r\n\"transmissions\": \"manual\",\r\n\"engine\":\"petrol\",\r\n\"model\" :\"407\",\r\n\"brand\" : \"Peugeout\" \r\n}",
					"options": {
						"raw": {
							"language": "json"
						}
					}
				},
				"url": {
					"raw": "localhost:5555/vehicles",
					"host": [
						"localhost"
					],
					"port": "5555",
					"path": [
						"vehicles"
					]
				}
			},
			"response": []
		},
		{
			"name": "/vehicles",
			"request": {
				"method": "POST",
				"header": [],
				"body": {
					"mode": "raw",
					"raw": "{\r\n\"reg_plate\": \"E0407BX\",\r\n\"year\" : \"2008\",\r\n\"class\" :\"C\",\r\n\"vin\" :\"KMHBH89GP4U592277\",\r\n\"transmissions\": \"manual\",\r\n\"engine\":\"petrol\",\r\n\"model\" :\"407\",\r\n\"brand\" : \"Peugeot\" ,\r\n\"customer_id\":1\r\n}",
					"options": {
						"raw": {
							"language": "json"
						}
					}
				},
				"url": {
					"raw": "localhost:5555/vehicles",
					"host": [
						"localhost"
					],
					"port": "5555",
					"path": [
						"vehicles"
					]
				}
			},
			"response": []
		},
		{
			"name": "/vehicles",
			"request": {
				"method": "POST",
				"header": [],
				"body": {
					"mode": "raw",
					"raw": "\r\n{\r\n \"reg_plate\": \"V1253BR\",\r\n  \"year\": \"2012\",\r\n  \"class\": \"A\",\r\n  \"vin\": \"KMHBT51GP4U192211\",\r\n  \"transmissions\": \"manual\",\r\n  \"engine\": \"petrol\",\r\n  \"model\":  \"Ibiza\",\r\n  \"brand\": \"Seat\",\r\n  \"customer_id\": 2\r\n}\r\n",
					"options": {
						"raw": {
							"language": "json"
						}
					}
				},
				"url": {
					"raw": "localhost:5555/vehicles",
					"host": [
						"localhost"
					],
					"port": "5555",
					"path": [
						"vehicles"
					]
				}
			},
			"response": []
		}
	]
}